<?xml version="1.0" encoding="UTF-8"?>
<CustomTab xmlns="http://soap.sforce.com/2006/04/metadata">
    <frameHeight>1050</frameHeight>
    <hasSidebar>true</hasSidebar>
    <label>Webcaster Settings</label>
    <mobileReady>false</mobileReady>
    <motif>Custom63: Chip</motif>
    <url>https://services001.mediaplatform.com/salesforce/web/Home.php?sessionId={!API.Session_ID}&amp;endpoint={!API.Partner_Server_URL_250}</url>
    <urlEncodingKey>UTF-8</urlEncodingKey>
</CustomTab>
