<?xml version="1.0" encoding="UTF-8"?>
<CustomTab xmlns="http://soap.sforce.com/2006/04/metadata">
    <frameHeight>1400</frameHeight>
    <hasSidebar>true</hasSidebar>
    <label>E-Commerce Admin (PlaceHolder)</label>
    <mobileReady>false</mobileReady>
    <motif>Custom67: Gears</motif>
    <url>https://www.google.com/</url>
    <urlEncodingKey>UTF-8</urlEncodingKey>
</CustomTab>
