<?xml version="1.0" encoding="UTF-8"?>
<CustomTab xmlns="http://soap.sforce.com/2006/04/metadata">
    <customObject>true</customObject>
    <description>Memberships to Campaigns on Phone2Action</description>
    <mobileReady>false</mobileReady>
    <motif>Custom67: Gears</motif>
</CustomTab>
