<?xml version="1.0" encoding="UTF-8"?>
<CustomTab xmlns="http://soap.sforce.com/2006/04/metadata">
    <label>Accounting</label>
    <mobileReady>false</mobileReady>
    <motif>Custom90: Scales</motif>
    <page>AccountingLandingPage</page>
</CustomTab>
