<?xml version="1.0" encoding="UTF-8"?>
<CustomTab xmlns="http://soap.sforce.com/2006/04/metadata">
    <customObject>true</customObject>
    <description>AS Inventory Analytic snapshot target object</description>
    <mobileReady>false</mobileReady>
    <motif>Custom25: Alarm clock</motif>
</CustomTab>
