<?xml version="1.0" encoding="UTF-8"?>
<CustomTab xmlns="http://soap.sforce.com/2006/04/metadata">
    <customObject>true</customObject>
    <description>Enables products from multiple entities to be sold within the same order with balancing inter-entity transactions.</description>
    <mobileReady>false</mobileReady>
    <motif>Custom67: Gears</motif>
</CustomTab>
