<?xml version="1.0" encoding="UTF-8"?>
<CustomTab xmlns="http://soap.sforce.com/2006/04/metadata">
    <description>Allows an admin to disable triggers on an individual basis.</description>
    <label>Disabled Triggers</label>
    <mobileReady>false</mobileReady>
    <motif>Custom26: Flag</motif>
    <page>DisabledTriggers</page>
</CustomTab>
